#HEADER FLUID|Name|Sprite_file|Icon|||||||||||||||||||||||||||||||||
FLUID|Air|0xFFFFFFFF||||||||||||||||||||||||||||||||||
||||||||||||||||||||||||||||||||||||
#HEADER BLOCK|Name|Sprite_file|Icon|||||||||||||||||||||||||||||||||
BLOCK|Dirt|0x4A2002FF||||||||||||||||||||||||||||||||||
||||||||||||||||||||||||||||||||||||
#HEADER PLANT|Name|Sprite_file|Icon|||||||||||||||||||||||||||||||||
PLANT|Potato_plant|0xC7630CFF||Potato_recipe||||||||||||||||||||||||||||||||
||||||||||||||||||||||||||||||||||||
#HEADER RECIPE|Name|Sprite_file|Icon|In_name|In_name|In_name|In_name|In_name|In_name|In_name|In_name|in_quantity|in_quantity|in_quantity|in_quantity|in_quantity|in_quantity|in_quantity|in_quantity|out_name|out_name|out_name|out_name|out_name|out_name|out_name|out_name|out_quantity|out_quantity|out_quantity|out_quantity|out_quantity|out_quantity|out_quantity|out_quantity|out_quantity
RECIPE|Potato_recipe|0xC7630CFF||Air||||||||100|0|0|0|0|0|0|0|Potato||||||||100|0|0|0|0|0|0|0|100
||||||||||||||||||||||||||||||||||||
#HEADER ITEM|Name|Sprite_file|Icon|||||||||||||||||||||||||||||||||
ITEM|Potato|0xC7630CFF||||||||||||||||||||||||||||||||||
||||||||||||||||||||||||||||||||||||
#HEADER MAPGEN|Name|Sprite_file|Icon|height_max|height_min|||||||||||||||||||||||||||||||
||||||||||||||||||||||||||||||||||||
#HEADER Constructor|Name|Sprite_file|Icon|stat_example???||||||||||||||||||||||||||||||||
||||||||||||||||||||||||||||||||||||
#HEADER PAWN|Name|Sprite_file|Icon|fall_speed|walk_speed|||||||||||||||||||||||||||||||
PAWN|DWARF|0xC70CABFF||30|30|||||||||||||||||||||||||||||||
